[
  {
    "name": "Województwo dolnośląskie",
    "addresses": [
      {
        "name": "WSSE we Wrocławiu",
        "address": "ul. M. Curie-Skłodowskiej 73/77 | 50-950 Wrocław"
      },
      {
        "name": "PSSE w Bolesławcu",
        "address": "ul. Górników 8 | 59-700 Bolesławiec"
      },
      {
        "name": "PSSE w Dzierżoniowie",
        "address": "ul. Ignacego Krasickiego 36 | 58-200 Dzierżoniów"
      },
      {
        "name": "PSSE w Głogowie",
        "address": "ul. Piotra Skargi 4 | 67-200 Głogów"
      },
      {
        "name": "WSSE we Górze",
        "address": "ul. Hirszfelda 6 | 56-200 Góra"
      },
      {
        "name": "PSSE w Jaworze",
        "address": "ul. Piwna 1 | 59-400 Jawor"
      },
      {
        "name": "PSSE w Jeleniej Górze",
        "address": "ul. Jana Kasprowicza 17 | 58-500 Jelenia Góra"
      },
      {
        "name": "PSSE w Kamiennej Górze",
        "address": "ul. Henryka Sienkiewicza 5 | 58-400 Kamienna Góra"
      },
      {
        "name": "PSSE w Kłodzku",
        "address": "ul. Steafan Stefana Okrzei 16 | 57-300 Kłodzko"
      },
      {
        "name": "PSSE w Legnicy",
        "address": "ul. Adama Mickiewicza 24 | 59-220 Legnica"
      },
      {
        "name": "PSSE w Lubaniu",
        "address": "ul. Bankowa 9b | 59-800 Lubań"
      },
      {
        "name": "PSSE w Lubinie",
        "address": "ul 1-go Maja 15 | 59-300 Lubin"
      },
      {
        "name": "PSSE w Lwówku Śląskim",
        "address": "ul. Partyzantów 6, 59-600 Lwówek Śląski"
      },
      {
        "name": "PSSE w Miliczu",
        "address": "ul. Armii Krajowej 5 | 56-300 Milicz"
      },
      {
        "name": "PSSE w Oławie",
        "address": "ul. Warszawska 5 | 55-200 Oława"
      },
      {
        "name": "PSSE w Oleśnicy",
        "address": "ul. 3 Maja 20 | 56-400 Oleśnica"
      },
      {
        "name": "PSSE w PSSE w Polkowicach",
        "address": "ul. Rynek 22, 59-100 Polkowice"
      },
      {
        "name": "PSSE w Strzelinie",
        "address": "ul. Adama Mickiewicza 18 | 57-100 Strzelin"
      },
      {
        "name": "PSSE w Środzie Śląskiej",
        "address": "ul. Ogrody Zamkowe 5 | 55-300 Środa Śląska"
      },
      {
        "name": "PSSE w Świdnicy",
        "address": "ul. Wałbrzyska 15 58-100 Świdnica"
      },
      {
        "name": "PSSE w Trzebnicy",
        "address": "ul. Obrońców Pokoju 7 | 55-100 Trzebnica"
      },
      {
        "name": "PSSE w Wałbrzychu",
        "address": "ul. Armii Krajowej 35 | 58-302 Wałbrzych"
      },
      {
        "name": "PSSE w Wołowie",
        "address": "ul. Marszałka Józefa Piłsudskiego 36, 56-100 Wołów"
      },
      {
        "name": "PSSE we Wrocławiu",
        "address": "ul. Kleczkowska 20 | 50-227 Wrocław"
      },
      {
        "name": "PSSE w Ząbkowicach Śl.",
        "address": "ul. Kłodzka 2 | 57-200 Ząbkowice Śl."
      },
      {
        "name": "PSSE w Zgorzelcu",
        "address": "ul. Warszawska 11 | 59-900 Zgorzelec"
      },
      {
        "name": "PSSE w Złotoryi",
        "address": "ul. Stanisława Staszica 22 | 59-500 Złotoryja"
      }
    ]
  },
  {
    "name": "Województwo kujawsko-pomorskie",
    "addresses": [
      {
        "name": "WSSE w Bydgoszczy",
        "address": "ul. Kujawska 4 | 85-031 Bydgoszcz"
      },
      {
        "name": "PSSE w Aleksandrowie Kujawskim",
        "address": "ul. Słowackiego 8 | 87-700 Aleksandrów Kujawski"
      },
      {
        "name": "PSSE w Brodnicy",
        "address": "ul. Żwirki i Wigury 1 | 87-300 Brodnica"
      },
      {
        "name": "PSSE w Bydgoszczy",
        "address": "ul. Kościuszki 27 | 85-079 Bydgoszcz"
      },
      {
        "name": "PSSE w PSSE w Chełmnie",
        "address": "ul. Łunawska 2A | 86 – 200 Chełmno"
      },
      {
        "name": "PSSE w PSSE w Golubiu-Dobrzyniu",
        "address": "ul. Dr. J. G. Koppa 1A | 87- 400 Golub-Dobrzyń"
      },
      {
        "name": "PSSE w PSSE w Grudziądzu",
        "address": "ul. Kosynierów Gdyńskich 31 | 86-300 Grudziądz"
      },
      {
        "name": "PSSE w Inowrocławiu",
        "address": "Plac Klasztorny 1b | 88-100 Inowrocław"
      },
      {
        "name": "PSSE w Lipnie",
        "address": "ul. Kościuszki 18 | 87-600 Lipno"
      },
      {
        "name": "PSSE w Mogilnie",
        "address": "ul. Kościuszki 4 | 88-300 Mogilno"
      },
      {
        "name": "PSSE w Nakle",
        "address": "ul. Adama Mickiewicza 11 | 89-100 Nakło"
      },
      {
        "name": "PSSE w Radziejowie",
        "address": "ul. Kościuszki 20 | 88-200 Radziejów"
      },
      {
        "name": "PSSE w Rypinie",
        "address": "ul. Warszawska 38A | 87-500 Złotoryja"
      },
      {
        "name": "PSSE w Sępólnie Krajeńskim",
        "address": "ul. Tadeusza Kościuszki 28 | 89-400 Sępólno Krajeńskie"
      },
      {
        "name": "PSSE w Świeciu",
        "address": "ul. Sądowa 5 | 86-100 Świecie"
      },
      {
        "name": "PSSE w Toruniu",
        "address": "ul. Szosa Bydgoska 1 | 87-100 Toruń"
      },
      {
        "name": "PSSE w Tucholi",
        "address": "Plac Wolności 23 | 89-500 Tuchola"
      },
      {
        "name": "PSSE w Wąbrzeźnie",
        "address": "ul. 1 Maja 46 | 87-200 Wąbrzeźno"
      },
      {
        "name": "PSSE w Włocławku",
        "address": "ul. Jana Kilińskiego 16 | 87-800 Włocławek"
      },
      {
        "name": "PSSE w Żninie",
        "address": "ul. Mickiewicza 24 | 88-400 Żnin"
      }
    ]
  },
  {
    "name": "Województwo lubelskie",
    "addresses": [
      {
        "name": "WSSE w Lublinie",
        "address": "ul. Pielęgniarek 6 | 20-708 Lublin"
      },
      {
        "name": "PSSE w Białej Podlaskiej",
        "address": "ul. Warszawska 18 | 21-500 Biała Podlaska"
      },
      {
        "name": "PSSE w Biłgoraju",
        "address": "ul. gen. Henryka Dąbrowskiego 15 | 23-400 Biłgoraj"
      },
      {
        "name": "PSSE w Chełmie",
        "address": "ul. Szpitalna 48 | 22-100 Chełm"
      },
      {
        "name": "PSSE w Hrubieszówie",
        "address": "27 Wołyńskiej Dywizji Piechoty AK Nr 6 | 22–500 Hrubieszów"
      },
      {
        "name": "PSSE w Janowie Lubelskim",
        "address": "ul. Wojska Polskiego 28 | 23–300 Janów Lubelski"
      },
      {
        "name": "PSSE w Krasnystawie",
        "address": "ul. Sikorskiego 3a | 22-300 Krasnystaw"
      },
      {
        "name": "PSSE w Kraśniku",
        "address": "ul. Tadeusza Kościuszki 36 | 23-200 Kraśnik"
      },
      {
        "name": "PSSE w Lubartówie",
        "address": "ul. Lubelska 103 | 21-100 Lubartów"
      },
      {
        "name": "PSSE w Lublinie",
        "address": "ul. 3 maja 4 | 20–078 Lublin"
      },
      {
        "name": "PSSE w Łęcznej",
        "address": "ul. Krasnystawska 52 | 21-010 Łęczna"
      },
      {
        "name": "PSSE w Łukówie",
        "address": "ul. Spółdzielcza 4 | 21-400 Łuków"
      },
      {
        "name": "PSSE w Opolu Lubelskim",
        "address": "ul. Puławska 1 | 24-300 Opole Lubelskie"
      },
      {
        "name": "PSSE w Parczewie",
        "address": "ul. Piwonia 54 | 21-200 Parczew"
      },
      {
        "name": "PSSE w Puławach",
        "address": "Al. Królewska 19 | 24–100 Puławy"
      },
      {
        "name": "PSSE w Radzyniu Podlaskim",
        "address": "ul. Pocztowa 5 | 21-300 Radzyń Podlaski"
      },
      {
        "name": "PSSE w Rykach",
        "address": "ul. Stanisława Poniatowskiego 2 | 08-500 Ryki"
      },
      {
        "name": "PSSE w Świdniku",
        "address": "Al. Lotników Polskich 1 | 21-045 Świdnik"
      },
      {
        "name": "PSSE w Tomaszowie Lubelskim",
        "address": "ul. Lwowska 51 | 22-600 Tomaszów Lubelski"
      },
      {
        "name": "PSSE w we Włodawie",
        "address": "Al. Józefa Piłsudskiego 66 | 22-200 Włodawa"
      },
      {
        "name": "PSSE w Zamościu",
        "address": "ul. Peowiaków 96 | 22-400 Zamość"
      },
      {
        "name": "GSSE w Dorohusku",
        "address": "Przejście Graniczne nr 9 | 22-175 Dorohusk"
      },
      {
        "name": "GSSE w Hrebennem",
        "address": "Drogowe Przejście Graniczne w Hrebennem | 22-680 Lubycza Królewska"
      },
      {
        "name": "GSSE w Koroszczynie",
        "address": "Terminal Samochodowy Koroszczyn | 21-550 Terespol"
      }
    ]
  },
  {
    "name": "Województwo lubuskie",
    "addresses": [
      {
        "name": "WSSE w Gorzowie Wielkopolskim",
        "address": "ul. Kazimierza Jagiellończyka 8b | 66-400 Gorzów Wlkp."
      },
      {
        "name": "PSSE w Drezdenku",
        "address": "ul. Chrobrego 11 | 66-530 Drezdenko"
      },
      {
        "name": "PSSE w Gorzowie Wlkp.",
        "address": "ul. Kosynierów Gdyńskich 27 | 66-400 Gorzów Wlkp,"
      },
      {
        "name": "PSSE w Krośnie Odrzańskim",
        "address": "ul. Nadodrzańska 24 | 66-600 Krosno Odrzańskie"
      },
      {
        "name": "PSSE w Międzyrzeczu",
        "address": "os. Centrum 16 | 66-300 Międzyrzecz"
      },
      {
        "name": "PSSE w Nowej Soli",
        "address": "ul. Wojska Polskiego 11 | 67-100 Nowa Sól"
      },
      {
        "name": "PSSE w Słubicach",
        "address": "ul. Mickiewicza 6 | 69-100 Słubice"
      },
      {
        "name": "PSSE w Sulęcinie",
        "address": "ul. Lipowa 14b | 69-200 Sulęcin"
      },
      {
        "name": "PSSE w Świebodzinie",
        "address": "ul. 30 Stycznia 5 | 66-200 Świebodzin"
      },
      {
        "name": "PSSE w Zielonej Górze",
        "address": "ul. Jasna 10 | 65-470 Zielona Góra"
      },
      {
        "name": "PSSE w Żaganiu",
        "address": "ul. Szprotawska 45a | 68-100 Żagań"
      },
      {
        "name": "PSSE w Żarach",
        "address": "ul. Podchorążych 23a | 68-200 Żary"
      },
      {
        "name": "WSSE w Łodzi",
        "address": "ul. Wodna 40 | 90-046 Łódź"
      },
      {
        "name": "PSSE w Bełchatowie",
        "address": "ul. Okrzei 49 | 97-400 Bełchatów"
      }
    ]
  },
  {
    "name": "Województwo łódzkie",
    "addresses": [
      {
        "name": "PSSE w Brzezinach",
        "address": "ul. Reformacka 3 | 95-060 Brzeziny"
      },
      {
        "name": "PSSE w Kutnie",
        "address": "ul. Kościuszki 14 | 99-300 Kutno"
      },
      {
        "name": "PSSE w Łasku",
        "address": "ul. Warszawska 38 | 98-100 Łask"
      },
      {
        "name": "PSSE w Łęczycy",
        "address": "ul. Adama Mickiewicza 18 | 99-100 Łęczyca"
      },
      {
        "name": "PSSE w Łodzi",
        "address": "ul. Stanisława Przybyszewskiego 10 | 93-189 Łódź"
      },
      {
        "name": "PSSE w Łowiczu",
        "address": "ul. Podrzeczna 24 | 99-400 Łowicz)"
      },
      {
        "name": "PSSE w Opocznie",
        "address": "pl. Tadeusza Kościuszki 9 | 26-300 Opoczno"
      },
      {
        "name": "PSSE w Pabianicach",
        "address": "ul. Jana Kilińskiego 10/12 | 95-200 Pabianice"
      },
      {
        "name": "PSSE w Pajęcznie",
        "address": "ul. Stefana Żeromskiego 7 | 98-330 Pajęczno"
      },
      {
        "name": "PSSE w Piotrkowie Trybunalskim",
        "address": "al. 3 Maja 8 | 97-300 Piotrków Trybunalski"
      },
      {
        "name": "PSSE w Poddębicach",
        "address": "ul. Adama Mickiewicza 16 | 99-200 Poddębice"
      },
      {
        "name": "PSSE w Radomsku",
        "address": "al. Jana Pawła II 9 | 97-500 Radomsko"
      },
      {
        "name": "PSSE w Rawie Mazowieckiej",
        "address": "ul. Łowicka 15 | 96-200 Rawa Mazowiecka"
      },
      {
        "name": "PSSE w Sieradzu",
        "address": "ul. Polskiej Organizacji Wojskowej 52 | 98-200 Sieradz"
      },
      {
        "name": "PSSE w Skierniewicach",
        "address": "ul. Marszałka Józefa Piłsudskiego 33 | 96-100 Skierniewice"
      },
      {
        "name": "PSSE w Tomaszowie Mazowieckim",
        "address": "ul. Św. Antoniego 24 | 97-200 Tomaszów Mazowiecki"
      },
      {
        "name": "PSSE w Wieluniu",
        "address": "ul. Polskiej Organizacji Wojskowej 14 | 98-300 Wieluń"
      },
      {
        "name": "PSSE w Wieruszowie",
        "address": "ul. Warszawska 75 | 98-400 Wieruszów"
      },
      {
        "name": "PSSE w Zduńskiej Woli",
        "address": "ul. Łaska 13 | 98-220 Zduńska Wola"
      },
      {
        "name": "PSSE w Zgierzu",
        "address": "ul. Andrzeja Struga 23 | 95-100 Zgierz"
      }
    ]
  },
  {
    "name": "Województwo małopolskie",
    "addresses": [
      {
        "name": "WSSE w Krakowie",
        "address": "ul. Prądnicka 76 | 31-202 Kraków"
      },
      {
        "name": "PSSE w Bochnii",
        "address": "ul. Konstytucji 3 Maja 5 | 32-700 Bochnia"
      },
      {
        "name": "PSSE w Brzesku",
        "address": "ul. Okocimska 42A | 32-800 Brzesko"
      },
      {
        "name": "PSSE w Chrzanowie",
        "address": "ul. Mjr.Grzybowskiego 7 | 32-500 Chrzanów"
      },
      {
        "name": "PSSE w Dąbrowie Tarnowskiej",
        "address": "ul. Marszałka Józefa Piłsudskiego 14 | 33-200 Dąbrowa Tarnowska"
      },
      {
        "name": "PSSE w Gorlicach",
        "address": "ul. Michalusa 1 | 38-300 Gorlice"
      },
      {
        "name": "PSSE w Krakowie",
        "address": "ul. Kornela Makuszyńskiego 9 | 31-752 Kraków"
      },
      {
        "name": "PSSE w Limanowej",
        "address": "ul. Matki Boskiej Bolesnej 16B | 34-600, Limanowa"
      },
      {
        "name": "PSSE w Miechowie",
        "address": "ul. Marii Konopnickiej 6 | 32-200 Miechów"
      },
      {
        "name": "PSSE w Myślenicach",
        "address": "ul.Juliusza Słowackiego 106 | 32–400 Myślenice"
      },
      {
        "name": "PSSE w Nowym Sączu",
        "address": "ul. Stefana Czarnieckiego 19 | 33-300 Nowy Sącz"
      },
      {
        "name": "PSSE w Nowym Targu",
        "address": "ul. Jana Kazimierza 6 | 34-400 Nowy Targ"
      },
      {
        "name": "PSSE w Olkuszu",
        "address": "Al. 1000-lecia 13A | 32-300 Olkusz"
      },
      {
        "name": "PSSE w Oświęcimiu",
        "address": "ul. Więźniów Oświęcimia 10 | 32-600 Oświęcim"
      },
      {
        "name": "PSSE w Proszowicach",
        "address": "ul. Adama Grzymały-Siedleckiego 2 | 32-100 Proszowice"
      },
      {
        "name": "PSSE w Suchej Beskidzkiej",
        "address": "ul. Marii Konopnickiej 7 | 34-200 Sucha Beskidzka"
      },
      {
        "name": "PSSE w Tarnowie",
        "address": "ul. Ignacego Mościckiego 10 | 33-100 Tarnów"
      },
      {
        "name": "PSSE w Wadowicach",
        "address": "ul. Teatralna 2 | 34-100 Wadowice"
      },
      {
        "name": "PSSE w Wieliczce",
        "address": "ul. Stroma 11 | 32-020 Wieliczka"
      },
      {
        "name": "PSSE w Zakopanem",
        "address": "ul. Chramcówki 19a | 34-500 Zakopane"
      }
    ]
  },
  {
    "name": "Województwo mazowieckie",
    "addresses": [
      {
        "name": "WSSE w Warszawie",
        "address": "ul. Żelazna 79 | 00-875 Warszawa"
      },
      {
        "name": "PSSE w Białobrzegach",
        "address": "ul. Stefana Żeromskiego 28 | 26-800 Białobrzegi"
      },
      {
        "name": "PSSE w Ciechanowie",
        "address": "ul. Henryka Sienkiewicza 27 | 06-400 Ciechanów"
      },
      {
        "name": "PSSE w Garwolinie",
        "address": "ul. Kard. Stefana Wyszyńskiego 13 | 08-400 Garwolin"
      },
      {
        "name": "PSSE w Gostyninie",
        "address": "ul.Bierzewicka 67 | 09-500 Gostynin"
      },
      {
        "name": "PSSE w Grodzisku Mazowieckim",
        "address": "ul. Żwirki i Wigury 10 | 05-825 Grodzisk Mazowiecki"
      },
      {
        "name": "PSSE w Grójcu",
        "address": "ul. Mogielnicka 67 | 05-600 Grójec"
      },
      {
        "name": "PSSE w Kozienicach",
        "address": "ul. Sławna 27 | 26-900 Kozienice"
      },
      {
        "name": "PSSE w Legionowie",
        "address": "ul. gen. Władysława Sikorskiego 11 | 05-119 Legionowo"
      },
      {
        "name": "PSSE w Lipsku",
        "address": "ul. Iłżecka 6 | 27-300 Lipsko"
      },
      {
        "name": "PSSE w Łosicach",
        "address": "ul. Kilińskiego 2 | 08-200 Łosice"
      },
      {
        "name": "PSSE w Warszawie",
        "address": "ul. Jana Kochanowskiego 21 | 01-864 Warszawa"
      },
      {
        "name": "PSSE w Makowie Mazowieckim",
        "address": "ul. Adama Mickiewicza 31 | 06-200 Maków Maz."
      },
      {
        "name": "PSSE w Mińsku Mazowieckim",
        "address": "pl. Jana Kilińskiego 10 | 05-300 Mińsk Maz."
      },
      {
        "name": "PSSE w Mławie",
        "address": "Pl. 1 Maja 6 | 06-500 Mława"
      },
      {
        "name": "PSSE w Nowym Dworze Mazowieckim",
        "address": "ul. Chemików 6 | 05-100 Nowy Dwór Maz."
      },
      {
        "name": "PSSE w Ostrołęce",
        "address": "ul. Targowa 4 | 07 – 410 Ostrołęka"
      },
      {
        "name": "PSSE w Ostrowi Mazowieckiej",
        "address": "ul. gen. Władysława Sikorskiego 3 | 07-300 Ostrów Maz."
      },
      {
        "name": "PSSE w Otwocku",
        "address": "ul. Jana Kilińskiego 1 |05-400 Otwock"
      },
      {
        "name": "PSSE w Piasecznie",
        "address": "ul. Dworska 7 | 05-510 Konstancin-Jeziorna"
      },
      {
        "name": "PSSE w Płocku",
        "address": "ul. Kolegialna 20 | 09-402 Płock"
      },
      {
        "name": "PSSE w Płońsku",
        "address": "ul. Henryka Sienkiewicza 7a | 09-100 Płońsk"
      },
      {
        "name": "PSSE w Pruszkowie",
        "address": "al. Armii Krajowej 2/4 | 05-800 Pruszków"
      },
      {
        "name": "PSSE w Przasnyszu",
        "address": "ul. Gołymińska 13 | 06-300 Przasnysz"
      },
      {
        "name": "PSSE w Przysusze",
        "address": "ul. Szkolna 7 | 26-400 Przysucha"
      },
      {
        "name": "PSSE w Pułtusku",
        "address": "ul. 3 Maja 20 | 06-100 Pułtusk"
      },
      {
        "name": "PSSE w Radomiu",
        "address": "ul. gen. Leopolda Okulickiego 9D | 26-601 Radom"
      },
      {
        "name": "PSSE w Siedlcach",
        "address": "ul. Księcia Józefa Poniatowskiego 31 | 08-110 Siedlce"
      },
      {
        "name": "PSSE w Sierpcu",
        "address": "ul. Piastowska 24a | 09-200 Sierpc"
      },
      {
        "name": "PSSE w Sochaczewie",
        "address": "ul. Romualda Traugutta 18 | 96-500 Sochaczew"
      },
      {
        "name": "PSSE w Sokołowie Podlaskim",
        "address": "ul. Oleksiaka Wichury 3 | 08-300 Sokołów Podlaski"
      },
      {
        "name": "PSSE w Szydłowcu",
        "address": "ul. Metalowa 7 | 26-500 Szydłowiec"
      },
      {
        "name": "PSSE Warszawa Zachód",
        "address": "ul. Poznańska 129 | 05-850 Ożarów Mazowiecki"
      },
      {
        "name": "PSSE w Węgrowie",
        "address": "ul. Kard. Stefana Wyszyńskiego 3 | 07-100 Węgrów"
      },
      {
        "name": "PSSE w Wołominie",
        "address": "ul. Legionów 78 |05-200 Wołomin"
      },
      {
        "name": "PSSE w Wyszkowie",
        "address": "ul. Ignacego Daszyńskiego 28 | 07-200 Wyszków"
      },
      {
        "name": "PSSE w Zwoleniu",
        "address": "ul. Bogusza 37 | 26-700 Zwoleń"
      },
      {
        "name": "PSSE w Żurominie",
        "address": "ul. Przemysłowa 10 |09-300 Żuromin"
      },
      {
        "name": "PSSE w Żyrardowie",
        "address": "ul. Stanisława Moniuszki 40 | 96-300 Żyrardów"
      },
      {
        "name": "GSSE w Warszawie (tylko dla pasażerów na lotnisku)",
        "address": "ul. Żwirki i Wigury 1 | 00-906 Warszawa"
      }
    ]
  },
  {
    "name": "Województwo opolskie",
    "addresses": [
      {
        "name": "WSSE w Opolu",
        "address": "ul. Mickiewicza 1 | 45-367 Opole"
      },
      {
        "name": "PSSE w Brzegu",
        "address": "ul. Armii Krajowej 22 | 49-300 Brzeg"
      },
      {
        "name": "PSSE w Głubczycach",
        "address": "ul. Grunwaldzka 1B | 48-100 Głubczyce"
      },
      {
        "name": "PSSE w Kędzierzynie–Koźlu",
        "address": "ul. Anny 14 | 47-200 Kędzierzyn-Koźle"
      },
      {
        "name": "PSSE w Kluczborku",
        "address": "ul. Jagiellońska 8 | 46-200 Kluczbork"
      },
      {
        "name": "PSSE w Krapkowicach",
        "address": "ul. Księdza Koziołka 30 | 47-303 Krapkowice"
      },
      {
        "name": "PSSE w Namysłowie",
        "address": "ul. Józefa Piłsudskiego 13 | 46-100 Namysłów"
      },
      {
        "name": "PSSE w Nysie",
        "address": "ul. Stefana Żeromskiego 7/9 | 48-304 Nysa"
      },
      {
        "name": "PSSE w Oleśnie",
        "address": "ul. Wielkie Przedmieście 7 | 46-300 Olesno"
      },
      {
        "name": "PSSE w Opolu",
        "address": "ul. Krakowska 51 | 45-018 Opole"
      },
      {
        "name": "PSSE w Prudniku",
        "address": "ul. Klasztorna 4 | 48-200 Prudnik"
      },
      {
        "name": "PSSE w Strzelcach Opolskich",
        "address": "ul. Marszałka Józefa Piłsudskiego 20 | 47-100 Strzelce Opolskie"
      }
    ]
  },
  {
    "name": "Województwo podkarpackie",
    "addresses": [
      {
        "name": "WSSE w Rzeszowie",
        "address": "ul. Wierzbowa 16 | 35 – 959 Rzeszów"
      },
      {
        "name": "PSSE w Brzozowie",
        "address": "ul. Moniuszki 17 | 36-200 Brzozów"
      },
      {
        "name": "PSSE w Dębicy",
        "address": "ul. Parkowa 2 | 39-200 Dębica"
      },
      {
        "name": "PSSE w Jarosławiu",
        "address": "ul. Grunwaldzka 7 | 37-500 Jarosław"
      },
      {
        "name": "PSSE w Jaśle",
        "address": "ul. Koralewskiego 13 | 38-200 Jasło"
      },
      {
        "name": "PSSE w Kolbuszowej",
        "address": "ul. 11 listopada 10 | 36-100 Kolbuszowa"
      },
      {
        "name": "PSSE w Krośnie",
        "address": "ul.Kisielewskiego 12 | 38-400 Krosno"
      },
      {
        "name": "PSSE w Leżajsku",
        "address": "ul. Mickiewicza 71 | 37-300 Leżajsk"
      },
      {
        "name": "PSSE w Lubaczowie",
        "address": "ul. Mickiewicza 45 | 37-600 Lubaczów"
      },
      {
        "name": "PSSE w Łańcie",
        "address": "ul. Mickiewicza 6 | 37-100 Łańcut"
      },
      {
        "name": "PSSE w Mielcu",
        "address": "ul. M. Skłodowskiej 8 | 39-300 Mielec"
      },
      {
        "name": "PSSE w Nisku",
        "address": "ul. Rudnicka 13 | 37-400 Nisko"
      },
      {
        "name": "PSSE w Przemyślu",
        "address": "ul. Biskupa Jakuba Glazera 9 | 37-700 Przemyśl"
      },
      {
        "name": "PSSE w Przeworsku",
        "address": "Rynek 1 | 37-200 Przeworsk"
      },
      {
        "name": "PSSE w Ropczycach",
        "address": "ul. Mickiewicza 57 | 39-100 Ropczyce"
      },
      {
        "name": "PSSE w Rzeszowie",
        "address": "ul. Jarosława Dąbrowskiego 79A | 35-040 Rzeszów"
      },
      {
        "name": "PSSE w Sanoku",
        "address": "ul. Jezierskiego 39 | 38-500 Sanok"
      },
      {
        "name": "PSSE w Stalowej Woli",
        "address": "ul. Niezłomnych 66 | 37-450 Stalowa Wola"
      },
      {
        "name": "PSSE w Strzyżowie",
        "address": "ul. Słowackiego 8 | 38-100 Strzyżów"
      },
      {
        "name": "PSSE w Tarnobrzegu",
        "address": "ul. 1-go Maja 1 | 39-400 Tarnobrzeg"
      },
      {
        "name": "PSSE w Ustrzykach Dolnych",
        "address": "ul. 29 Listopada 53 | 38-700 Ustrzyki Dolne"
      },
      {
        "name": "GSSE w Przemyślu",
        "address": "ul. Mariacka 4 | 37-700 Przemyśl"
      }
    ]
  },
  {
    "name": "Województwo podlaskie",
    "addresses": [
      {
        "name": "WSSE w Białymstoku",
        "address": "ul. Legionowa 8 | 15-099 Białystok"
      },
      {
        "name": "PSSE w Augustowie",
        "address": "ul. Karola Brzostowskiego 10 | 16-300 Augustów"
      },
      {
        "name": "PSSE w Białymstoku",
        "address": "ul. Warszawska 57a | 15-062 Białystok"
      },
      {
        "name": "PSSE w Bielsku Podlaskim",
        "address": "ul. Białowieska 28 | 17-100 Bielsk Podlaski"
      },
      {
        "name": "PSSE w Grajewie",
        "address": "Plac Niepodległości 12 | 19-200 Grajewo"
      },
      {
        "name": "PSSE w Hajnówce",
        "address": "ul. Marszałka JózefaPiłsudskiego 10 | 17-200 Hajnówka"
      },
      {
        "name": "PSSE w Kolnie",
        "address": "ul. Wojska Polskiego 4 | 18-500 Kolno"
      },
      {
        "name": "PSSE w Łomży",
        "address": "ul. Ks. Janusza I 1 | 18-400 Łomża"
      },
      {
        "name": "PSSE w Mońkach",
        "address": "ul. Tysiaclecia 5 | 19-100 Mońki"
      },
      {
        "name": "PSSE w Sejnach",
        "address": "ul. Dr Edwarda Rittlera 2 | 16-500 Sejny"
      },
      {
        "name": "PSSE w Siemiatyczach",
        "address": "ul. Jana Kilińskiego 32 | 17-300 Siemiatycze"
      },
      {
        "name": "PSSE w Sokółce",
        "address": "ul. 1-go Maja 13A | 16-100 Sokółka"
      },
      {
        "name": "PSSE w Suwałkach",
        "address": "ul. Utrata 9a | 16-400 Suwałki"
      },
      {
        "name": "PSSE w Wysokiem Mazowieckiem",
        "address": "ul. 1 Maja 9 | 18-200 Wysokie Mazowieckie"
      },
      {
        "name": "PSSE w Zambrowie",
        "address": "ul. Obrońców Zambrowa 50 | 18-300 Zambrów"
      },
      {
        "name": "GSSE w Suwałkach",
        "address": "ul. Utrata 9A | 16-400 Suwałki"
      }
    ]
  },
  {
    "name": "Województwo pomorskie",
    "addresses": [
      {
        "name": "WSSE w Gdańsku",
        "address": "ul. Dębinki 4 | 80-211 Gdańsk"
      },
      {
        "name": "PSSE w Bytowie",
        "address": "ul. gen. Władysława Sikorskiego 27 | 77-150 Bytów"
      },
      {
        "name": "PSSE w Chojnicach",
        "address": "ul. Marszałka Józefa Piłsudzkiego 39 | 89-600 Chojnice"
      },
      {
        "name": "PSSE w Człuchowie",
        "address": "ul. Sobieskiego 4 | 77-300 Człuchów"
      },
      {
        "name": "PSSE w Gdańsku",
        "address": "ul. Wałowa 27 | 80-858 Gdańsk"
      },
      {
        "name": "PSSE w Gdynii",
        "address": "ul. Starowiejska 50 | 81-356 Gdynia"
      },
      {
        "name": "PSSE w Kartuzach",
        "address": "ul. Sambora 30a | 83-300 Kartuzy"
      },
      {
        "name": "PSSE w Kościerzynie",
        "address": "ul. Wodna 15 | 83-400 Kościerzyna"
      },
      {
        "name": "PSSE w Kwidzyniu",
        "address": "ul. Chopina 40 | 82-500 Kwidzyn"
      },
      {
        "name": "PSSE w Lęborku",
        "address": "ul. Gdańska 63 | 84-300 Lębork"
      },
      {
        "name": "PSSE w Malborku",
        "address": "ul. Juliusza Słowackiego 64 | 82-200 Malbork"
      },
      {
        "name": "PSSE w Nowym Dworze Gdańskim",
        "address": "ul. Morska 1 | 82-100 Nowy Dwór Gdański"
      },
      {
        "name": "PSSE w Pruszczu Gdańskim",
        "address": "ul. Grunwaldzka 25 | 83-000 Pruszcz Gdański"
      },
      {
        "name": "PSSE w Pucku",
        "address": "ul. Wojska Polskiego 16 | 84-100 Puck"
      },
      {
        "name": "PSSE w Słupsku",
        "address": "ul. Piotra Skargi 8 | 76-200 Słupsk"
      },
      {
        "name": "PSSE w Sopocie",
        "address": "ul. Tadeusza Kościuszki 23 | 81-704 Sopot"
      },
      {
        "name": "PSSE w Starogardzie Gdańskim",
        "address": "ul. Kanałowa 5 | 83-200 Starogard Gdański"
      },
      {
        "name": "PSSE w Tczewie",
        "address": "ul. Obrońców Westerplatte 10 | 83-100 Tczew"
      },
      {
        "name": "PSSE w Wejherowie",
        "address": "ul. Obrońców Helu 3 | 84-200 Wejherowo"
      },
      {
        "name": "GSSE w Gdynii",
        "address": "ul. Kontenerowa 69 | 81-155 Gdynia"
      }
    ]
  },
  {
    "name": "Województwo śląskie",
    "addresses": [
      {
        "name": "WSSE w Katowicach",
        "address": "ul. Raciborska 39 | 40-074 Katowice"
      },
      {
        "name": "PSSE w Bielsku-Białej",
        "address": "ul. Władysława Broniewskiego 21 | 43-300 Bielsko-Biała"
      },
      {
        "name": "PSSE w Bytomiu",
        "address": "ul. Stanisława Moniuszki 25 | 41-902 Bytom"
      },
      {
        "name": "PSSE w Cieszynie",
        "address": "[decyzją Głównego Inspektora Sanitarnego nr BI.OI.0111.4.2020 zadania PPIS w Cieszynie realizuje PPIS w Bielsku-Białej]"
      },
      {
        "name": "PSSE w Chorzowie",
        "address": "ul. Kazimierza Wielkiego 6 | 41-500 Chorzów"
      },
      {
        "name": "PSSE w Częstochowie",
        "address": "ul. Jasnogórska 15A | 42-200 Częstochowa"
      },
      {
        "name": "PSSE w Dąbrowie Górniczej",
        "address": "ul. Henryka Dąbrowskiego 9A | 41-300 Dąbrowa Górnicza"
      },
      {
        "name": "PSSE w Gliwicach",
        "address": "ul. Stefana Banacha 4 | 44-100 Gliwice"
      },
      {
        "name": "PSSE w Jaworznie",
        "address": "ul. Pocztowa 7 | 43-600 Jaworzno"
      },
      {
        "name": "PSSE w Katowicach",
        "address": "pl. Grunwaldzki 8-10 | 40-127 Katowice"
      },
      {
        "name": "PSSE w Kłobucku",
        "address": "ul. Stanisława Staszica 28 | 42-100 Kłobuck"
      },
      {
        "name": "PSSE w Lublińcu",
        "address": "ul. Dworcowa 17 | 42-700 Lubliniec"
      },
      {
        "name": "PSSE w Myszkowie",
        "address": "ul. Pułaskiego 42 | 42-300 Myszków"
      },
      {
        "name": "PSSE w Raciborzu",
        "address": "ul. Stefana Batorego 8 | 47-400 Racibórz"
      },
      {
        "name": "PSSE w Rudzie Śląskiej",
        "address": "ul. Jarosława Dąbrowskiego 9 | 41-710 Ruda Śląska"
      },
      {
        "name": "PSSE w Rybniku",
        "address": "ul. kpt. Leopolda Janiego 1 | 44-200 Rybnik"
      },
      {
        "name": "PSSE w Tychach",
        "address": "ul. Budowlanych 131 | 43-100 Tychy"
      },
      {
        "name": "PSSE w Sosnowcu",
        "address": "ul. Pogotowia 1 | 41-200 Sosnowiec"
      },
      {
        "name": "PSSE w Wodzisławiu Śląskim",
        "address": "ul. Bogumińska 3 | 44-300 Wodzisław Śląski"
      },
      {
        "name": "PSSE w Zawierciu",
        "address": "ul.11 Listopada 15 | 42-400 Zawiercie"
      },
      {
        "name": "PSSE w Żywcu",
        "address": "ul. Krasińskiego 3 | 34-300 Żywiec"
      }
    ]
  },
  {
    "name": "Województwo świętokrzyskie",
    "addresses": [
      {
        "name": "WSSE w Kielcach",
        "address": "ul. Jagiellońska 68 | 25-734 Kielce"
      },
      {
        "name": "PSSE w Busku - Zdroju",
        "address": "ul. Stefana Batorego 2 | 28-100 Busko-Zdrój"
      },
      {
        "name": "PSSE w Jędrzejowie",
        "address": "ul. 11-go Listopada 33 | 28-300 Jędrzejów"
      },
      {
        "name": "PSSE w Kielcach",
        "address": "ul. Leona Skibińskiego 4 | 25-819 Kielce"
      },
      {
        "name": "PSSE w Końskich",
        "address": "ul. Sportowa 7 | 26-200 Końskie"
      },
      {
        "name": "PSSE w Opatowie",
        "address": "ul. Stefanii Sempołowskiej 3 | 27-500 Opatów"
      },
      {
        "name": "PSSE w Ostrowcu Świętokrzyskim",
        "address": "ul. Smolna 3 | 27-400 Ostrowiec Świętokrzyski"
      },
      {
        "name": "PSSE w Sandomierzu",
        "address": "ul. Leona Frankowskiego 8 | 27-600 Sandomierz"
      },
      {
        "name": "PSSE w Skarżysku - Kamiennej",
        "address": "ul. Czerwonego Krzyża 10 | 26-110 Skarżysko – Kamienna"
      },
      {
        "name": "PSSE w Starachowicach",
        "address": "ul. Złota 6 | 27-200 Starachowice"
      },
      {
        "name": "PSSE w Staszowie",
        "address": "ul. Szpitalna 37/14 | 28-200 Staszów"
      },
      {
        "name": "PSSE we Włoszczowie",
        "address": "ul. Jana III Sobieskiego 38 | 29-100 Włoszczowa"
      }
    ]
  },
  {
    "name": "Województwo warmińsko-mazurskie",
    "addresses": [
      {
        "name": "WSSE w Olsztynie",
        "address": "ul. Żołnierska 16 | 10-561 Olsztyn"
      },
      {
        "name": "PSSE w Bartoszycach",
        "address": "ul. Bohaterów Warszawy 12 | 11-200 Bartoszyce"
      },
      {
        "name": "PSSE w Braniewie",
        "address": "ul. Królewiecka 26 | 14-500 Braniewo"
      },
      {
        "name": "PSSE w Działdowie",
        "address": "ul. Plac Biedrawy 5 | 13-200 Działdowo"
      },
      {
        "name": "PSSE w Elblągu",
        "address": "ul. Królewiecka 195 | 82-300 Elbląg"
      },
      {
        "name": "PSSE w Ełku",
        "address": "Toruńska 6A/1 | 19-300 Ełk"
      },
      {
        "name": "PSSE w Gołdapi",
        "address": "ul. Wolności 11 | 19-500 Gołdap"
      },
      {
        "name": "PSSE w Giżycku",
        "address": "ul. Suwalska 3 | 11 – 500 Giżycko"
      },
      {
        "name": "PSSE w Iławie",
        "address": "ul. Sienkiewicza 10 | 14-200 Iława"
      },
      {
        "name": "PSSE w Kętrzynie",
        "address": "Plac Marszałka Józefa Piłsudskiego 5 | 11-400 Kętrzyn"
      },
      {
        "name": "PSSE w Lidzbarku Warmińskim",
        "address": "ul. Orła Białego 6 | 11-100 Lidzbark Warmiński"
      },
      {
        "name": "PSSE w Mrągowie",
        "address": "ul. Królewiecka 60B | 11-700 Mrągowo"
      },
      {
        "name": "PSSE w Nidzicy",
        "address": "ul. Żeromskiego 8 | 13-100 Nidzica"
      },
      {
        "name": "PSSE w Nowym Mieście Lubawskim",
        "address": "ul. Grunwaldzka 3 | 13- 300 Nowe Miasto Lubawskie"
      },
      {
        "name": "PSSE w Olecku",
        "address": "ul. Wojska Polskiego 13 | 19-400 Olecko"
      },
      {
        "name": "PSSE w Olsztynie",
        "address": "ul. Żołnierska 16 |10-561 Olsztyn"
      },
      {
        "name": "PSSE w Ostródzie",
        "address": "ul. Tadeusza Kościuszki 2 | 14-100 Ostróda"
      },
      {
        "name": "PSSE w Piszu",
        "address": "ul. Warszawska 5 | 12-200 Pisz"
      },
      {
        "name": "PSSE w Szczytnie",
        "address": "ul. M. Curie-Skłodowskiej 8 | 12-100 Szczytno"
      },
      {
        "name": "PSSE w Węgorzewie",
        "address": "ul. 3 Maja 17b | 11-600 Węgorzewo"
      },
      {
        "name": "GSSE w Elblągu",
        "address": "ul. Gen.Józefa Bema 17 | 82-300 Elbląg"
      }
    ]
  },
  {
    "name": "Województwo wielkopolskie",
    "addresses": [
      {
        "name": "WSSE w Poznaniu",
        "address": "ul. Zygmunta Noskowskiego 23 |61-705 Poznań"
      },
      {
        "name": "PSSE w Chodzieży",
        "address": "ul. Składowa 5 | 64-800 Chodzież"
      },
      {
        "name": "PSSE w Czarnkowie",
        "address": "ul. Zamkowa 8 | 64-700 Czarnków"
      },
      {
        "name": "PSSE w Gnieźnie",
        "address": "ul. św. Wawrzyńca 18 | 62-200 Gniezno"
      },
      {
        "name": "PSSE w Gostyniu",
        "address": "ul. Przy Dworcu 4 | 63-800 Gostyń"
      },
      {
        "name": "PSSE w Grodzisku Wielkopolskim.",
        "address": "ul. Rakoniewicka 42 |62-065 Grodzisk Wielkopolski."
      },
      {
        "name": "PSSE w Jarocinie",
        "address": "ul. Wąska 2 | 63-200 Jarocin"
      },
      {
        "name": "PSSE w Kaliszu",
        "address": "ul. Tadeusza Kościuszki 6, 62-800 Kalisz"
      },
      {
        "name": "PSSE w Kępnie",
        "address": "ul. Pocztowa 1-3, 63-600 Kępno"
      },
      {
        "name": "PSSE w Kole",
        "address": "ul. Toruńska 72, 62-600 Koło"
      },
      {
        "name": "PSSE w Koninie",
        "address": "ul. Stanisława Staszica 16 | 62-500 Konin"
      },
      {
        "name": "PSSE w Kościanie",
        "address": "ul. Ks. Piotra Bączkowskiego 5a | 64-000 Kościan"
      },
      {
        "name": "PSSE w Krotoszynie",
        "address": "ul. Floriańska 10 | 63-700 Krotoszyn"
      },
      {
        "name": "PSSE w Lesznie",
        "address": "ul. Niepodległości 66, 64-100 Leszno"
      },
      {
        "name": "PSSE w Międzychodzie",
        "address": "ul.Strzelecka 12 | 64-400 Międzychód"
      },
      {
        "name": "PSSE w Nowym Tomyślu",
        "address": "pl. Niepodległości 4,64-300 Nowy Tomyśl"
      },
      {
        "name": "PSSE w Obornikach",
        "address": "ul. Marszałka Józefa Piłsudskiego 76, 64-600 Oborniki"
      },
      {
        "name": "PSSE w Ostrowie Wielkopolskim",
        "address": "pl. Stefana Rowińskiego 3, 63-400 Ostrów Wielkopolski"
      },
      {
        "name": "PSSE w Ostrzeszowie",
        "address": "ul. gen. Władysława Sikorskiego 58 | 63-500 Ostrzeszów"
      },
      {
        "name": "PSSE w Pile",
        "address": "al. Wojska Polskiego 43, 64-920 Piła"
      },
      {
        "name": "PSSE w Pleszewie",
        "address": "ul. Poznańska 30, 63-300 Pleszew"
      },
      {
        "name": "PSSE w Poznaniu",
        "address": "ul. Gronowa 22 | 61-655 Poznań"
      },
      {
        "name": "PSSE w Rawiczu",
        "address": "ul. Wały Jarsoława Dąbrowskiego 2, 63-900 Rawicz"
      },
      {
        "name": "PSSE w Słupcy",
        "address": "ul. Kościuszki 9 | 62-400 Słupca"
      },
      {
        "name": "PSSE w Szamotułach",
        "address": "ul. Bolesława Chrobrego 8, 64-500 Szamotuły"
      },
      {
        "name": "PSSE w Śremie",
        "address": "ul. Wiejska 2 | 63-100 Śrem"
      },
      {
        "name": "PSSE w Środzie Wielkopolskiej",
        "address": "ul. Żwirki i Wigury 1 | 63-000 Środa Wielkopolska"
      },
      {
        "name": "PSSE w Turku",
        "address": "ul. Uniejowska 1a | 62-700 Turek"
      },
      {
        "name": "PSSE w Wągrowcu",
        "address": "ul. Gnieźnieńska 49 | 62-100 Wągrowiec"
      },
      {
        "name": "PSSE w Wolsztynie",
        "address": "ul. Drzymały 16 | 64-200 Wolsztyn"
      },
      {
        "name": "PSSE we Wrześni",
        "address": "ul. Wrocławska 42 | 62-300 Września"
      },
      {
        "name": "PSSE w Złotowie",
        "address": "ul. Michała Hubego 1/1 | 77-400 Złotów"
      }
    ]
  },
  {
    "name": "Województwo zachodniopomorskie",
    "addresses": [
      {
        "name": "WSSE w Szczecinie",
        "address": "ul. Spedytorska 6 | 70-632 Szczecin"
      },
      {
        "name": "PSSE w Białogardzie",
        "address": "ul. Przechodnia 2 | 78-200 Białogard"
      },
      {
        "name": "PSSE w Choszcznie",
        "address": "ul. Bolesława Chrobrego 27A | 73-200 Choszczno"
      },
      {
        "name": "PSSE w Drawsku Pomorskim",
        "address": "ul. Jana Sobieskiego 1 | 78-500 Drawsko Pomorskie"
      },
      {
        "name": "PSSE w Goleniowie",
        "address": "ul. Pocztowa 36 | 72-100 Goleniów"
      },
      {
        "name": "PSSE w Gryficach",
        "address": "ul. Nowy Świat 6 | 72-300 Gryfice"
      },
      {
        "name": "PSSE w Gryfinie",
        "address": "ul. Flisacza 6 | 74-100 Gryfino"
      },
      {
        "name": "PSSE w Kamieniu Pomorskim",
        "address": "ul. Wolińska 7b | 72-400 Kamień Pomorski"
      },
      {
        "name": "PSSE w Kołobrzegu",
        "address": "ul. Ludwika Waryńskiego 8 | 78-100 Kołobrzeg"
      },
      {
        "name": "PSSE w Koszalinie",
        "address": "ul. Zwycięstwa 136 | 75- 613 Koszalin"
      },
      {
        "name": "PSSE w Łobzie",
        "address": "ul. Niepodległości 66 | 73 – 150 Łobez"
      },
      {
        "name": "PSSE w Myśliborzu",
        "address": "ul. Spokojna 13 | 74-300 Myślibórz"
      },
      {
        "name": "PSSE w Policach",
        "address": "ul. Kresowa 14 | 72-010 Police"
      },
      {
        "name": "PSSE w Pyrzycach",
        "address": "ul. Młodych Techników 5a | 74-200 Pyrzyce"
      },
      {
        "name": "PSSE w Sławnie",
        "address": "ul. Stefanii Sempołowskiej 2a | 76-100 Sławno"
      },
      {
        "name": "PSSE w Stargardzie",
        "address": "ul. Hetmana Stefana Czarneckiego 34 | 73-110 Stargard"
      },
      {
        "name": "PSSE w Szczecinie",
        "address": "ul. Wincentego Pola 6 | 71-342 Szczecin"
      },
      {
        "name": "PSSE w Szczecinku",
        "address": "ul. Juliana Ordona 22 | 78-400 Szczecinek"
      },
      {
        "name": "PSSE w Świdwinie",
        "address": "ul. Drawska 38 | 78-300 Świdwin"
      },
      {
        "name": "PSSE w Świnoujściu",
        "address": "ul. Jarosława Dąbrowskiego 5 | 72-600 Świnoujście"
      },
      {
        "name": "PSSE w Wałczu",
        "address": "ul. Aleja Zdobywców Wału Pomorskiego 54 | 78-600 Wałcz"
      },
      {
        "name": "GSSE w Szczecinie",
        "address": "Al. Wojska Polskiego 160 | 70-481 Szczecin"
      },
      {
        "name": "GSSE w Świnoujściu",
        "address": "ul. Grunwaldzka 72 | 72-600 Świnoujście"
      }
    ]
  }
]