[
  {
    "id": {
      "timestamp": 1609919890,
      "machine": 6419104,
      "pid": -29795,
      "increment": 9419812,
      "creationTime": "2021-01-06T07:58:10Z"
    },
    "question": "Jakie objawy są charakterystyczne dla wirusa",
    "answer": "Osoby zakażone koronawirusem zwykle mają:  wysoką gorączkę, kaszel, duszności, utratę węchu lub smaku. Rzadziej pojawiają się takie objawy, jak bóle mięśni i głowy, biegunka, wysypka."
  },
  {
    "id": {
      "timestamp": 1609920066,
      "machine": 6419104,
      "pid": -29795,
      "increment": 9419814,
      "creationTime": "2021-01-06T08:01:06Z"
    },
    "question": "Co zrobić w przypadku wystąpienia duszności i trudności z oddychaniem?",
    "answer": "Jeżeli występują u ciebie duszności lub kłopoty z oddychaniem, zadzwoń niezwłocznie na numer 112 lub 999, aby uzyskać pomoc medyczną, i uprzedź, że masz lub możesz mieć koronawirusa."
  },
  {
    "id": {
      "timestamp": 1609920098,
      "machine": 6419104,
      "pid": -29795,
      "increment": 9419815,
      "creationTime": "2021-01-06T08:01:38Z"
    },
    "question": "Mam objawy charakterystyczne dla COVID-19. Co powinienem zrobić w pierwszej kolejności?",
    "answer": "Jeśli Twoje objawy są typowe dla zakażenia koronawirusem SARS-CoV-2, skontaktuj się z Twoim lekarzem podstawowej opieki zdrowotnej za pośrednictwem teleporady. Lekarz może zlecić Ci test na koronawirusa."
  },
  {
    "id": {
      "timestamp": 1609920139,
      "machine": 6419104,
      "pid": -29795,
      "increment": 9419816,
      "creationTime": "2021-01-06T08:02:19Z"
    },
    "question": "Nie mogę skontaktować się ze swoim lekarzem POZ. Co mam zrobić?",
    "answer": "Jeśli nie możesz skontaktować się ze swoim lekarzem POZ, skorzystaj z wyszukiwarki poradni podstawowej opieki zdrowotnej: https://zip.nfz.gov.pl/GSL/GSL/POZ"
  },
  {
    "id": {
      "timestamp": 1609920168,
      "machine": 6419104,
      "pid": -29795,
      "increment": 9419817,
      "creationTime": "2021-01-06T08:02:48Z"
    },
    "question": "Co to znaczy, że miałem bliski kontakt z osobą chorą?",
    "answer": "Bliski kontakt z osobą chorą na koronawirusa oznacza:  przebywanie w bezpośredniej bliskości (twarzą w twarz) z osobą chorą, w odległości mniejszej niż 2 m przez ponad 15 minut, bezpośredni kontakt fizyczny z osobą zakażoną wirusem SARS-CoV-2 (np. podanie ręki), bezpośredni kontakt bez środków ochronnych z wydzielinami osoby z COVID-19 (np. dotykanie zużytej chusteczki higienicznej, narażenie na kaszel osoby chorej), przebywanie w tym samym pomieszczeniu, co chory z COVID-19, przez co najmniej 15 minut (np. w mieszkaniu, w klasie, poczekalni szpitala/przychodni, sali konferencyjnej), kontakt na pokładzie samolotu lub innych środków transportu zbiorowego obejmujący osoby zajmujące dwa miejsca (w każdym kierunku) sąsiadujące z osobą z COVID-19, osoby towarzyszące w podróży lub sprawujące opiekę nad osobą z COVID-19, członków załogi obsługujących sekcję, w której znajduje się chory."
  },
  {
    "id": {
      "timestamp": 1609920188,
      "machine": 6419104,
      "pid": -29795,
      "increment": 9419818,
      "creationTime": "2021-01-06T08:03:08Z"
    },
    "question": "Miałem bliski kontakt z osobą, która otrzymała pozytywny wynik testu. Czy powinienem to gdzieś zgłosić?",
    "answer": "Jeśli jesteś po bliskim kontakcie z osobą zarażoną koronawirusem SARS-CoV-2 (osoba ta uzyskała potwierdzony, pozytywny wynik testu PCR w kierunku zakażenia koronawirusem SARS-CoV-2), zgłoś ten fakt inspekcji sanitarnej. Skorzystaj z formularza online: Zgłoszenie do objęcia przez sanepid kwarantanną lub izolacją.  Jeśli masz pytania dotyczące kwarantanny, zadzwoń na infolinię do kontaktu z inspekcją sanitarną: +48 22 25 00 115. Infolinia jest czynna całodobowo.  Ważne! Jeśli wiesz, że miałeś bliski kontakt z osobą zakażoną lub chorą, pozostań w domu – nawet jeśli nie masz jeszcze decyzji o nałożeniu kwarantanny i dobrze się czujesz. Unikaj kontaktu z innymi ludźmi. Możesz ich zarazić, gdyby okazało się, że jesteś zakażony. Jeśli to niemożliwe, stosuj wszelkie wymagane środki ochrony indywidualnej.  Uwaga! Jeśli zostałeś zaszczepiony na COVID-19 nie będziesz skierowany na kwarantannę. Zasada obowiązuje od 28 grudnia 2020 r."
  }
]